…
The goal of datazoom.amazonia is to facilitate access to official data
regarding the Amazon. The package provides functions that download and
pre-process selected datasets. The function below provides a brief
description of the available datasets:

``` r
datazoom.amazonia::datasets_link()
#> # A tibble: 34 x 6
#>    survey   dataset     sidra_code available_time available_geo    link         
#>    <chr>    <chr>            <dbl> <chr>          <chr>            <chr>        
#>  1 PAM-IBGE pam_all_cr~       5457 1974-2019      Country, State,~ https://sidr~
#>  2 PAM-IBGE pam_perman~       1613 1974-2019      Country, State,~ https://sidr~
#>  3 PAM-IBGE pam_tempor~       1612 1974-2019      Country, State,~ https://sidr~
#>  4 PAM-IBGE pam_corn           839 2003-2019      Country, State,~ https://sidr~
#>  5 PAM-IBGE pam_potato        1001 2003-2019      Country, State,~ https://sidr~
#>  6 PAM-IBGE pam_peanut        1000 2003-2019      Country, State,~ https://sidr~
#>  7 PAM-IBGE pam_beans         1002 2003-2019      Country, State,~ https://sidr~
#>  8 PPM-IBGE ppm_livest~       3939 1974-2019      Country, State,~ https://sidr~
#>  9 PPM-IBGE ppm_sheep_~         95 1974-2019      Country, State,~ https://sidr~
#> 10 PPM-IBGE ppm_animal~         74 1974-2019      Country, State,~ https://sidr~
#> # ... with 24 more rows
```
…
